{
  "status_code": 0,
  "status_message": "",
  "data": {
    "result": {
      "1": {
        "hi": {
          "option_1": {
            "urea": 132,
            "ssp": 202,
            "mop": 54,
            "urea_breakup": {
              "जुताई के समय": 26,
              "चार पत्ती अवस्था": 33,
              "आठ पत्ती अवस्था": 40,
              "फ़ूल अवस्था": 26,
              "अनाज भरण अवस्था": 7
            }
          },
          "option_2": {
            "urea": 105,
            "dap": 70,
            "mop": 54,
            "urea_breakup": {
              "जुताई के समय": 0,
              "चार पत्ती अवस्था": 33,
              "आठ पत्ती अवस्था": 40,
              "फ़ूल अवस्था": 26,
              "अनाज भरण अवस्था": 6
            }
          },
          "bag": 50,
          "unit": "kg",
          "last_week": 21
        },
        "mr": {
          "option_1": {
            "urea": 132,
            "ssp": 202,
            "mop": 54,
            "urea_breakup": {
              "नांगरणीच्या वेळी": 26,
              "चार पान अवस्था": 33,
              "आठ पान अवस्था": 40,
              "फुल अवस्था": 26,
              "धान्य भरण्याची अवस्था": 7
            }
          },
          "option_2": {
            "urea": 105,
            "dap": 70,
            "mop": 54,
            "urea_breakup": {
              "नांगरणीच्या वेळी": 0,
              "चार पान अवस्था": 33,
              "आठ पान अवस्था": 40,
              "फुल अवस्था": 26,
              "धान्य भरण्याची अवस्था": 6
            }
          },
          "bag": 50,
          "unit": "kg",
          "last_week": 21
        }
      },
      "2": {
        "hi": {
          "option_1": {
            "urea": 132,
            "ssp": 127,
            "mop": 34,
            "urea_breakup": {
              "जुताई के समय": 36,
              "कल्ले बनने की अवस्था": 33,
              "बाली बनने की अवस्था": 32,
              "फ़ूल अवस्था": 30
            }
          },
          "option_2": {
            "urea": 115,
            "dap": 44,
            "mop": 34,
            "urea_breakup": {
              "जुताई के समय": 18,
              "कल्ले बनने की अवस्था": 32,
              "बाली बनने की अवस्था": 32,
              "फ़ूल अवस्था": 32
            }
          },
          "bag": 50,
          "unit": "kg",
          "last_week": 18
        }
      },
      "3": {
        "hi": {
          "option_1": {
            "urea": 105,
            "ssp": 152,
            "mop": 40,
            "urea_breakup": {
              "जुताई के समय": 53,
              "वनस्पति अवस्था": 26,
              "फूल से टीण्डों बनने की अवस्था": 26
            }
          },
          "option_2": {
            "urea": 85,
            "dap": 53,
            "mop": 40,
            "urea_breakup": {
              "जुताई के समय": 32,
              "वनस्पति अवस्था": 26,
              "फूल से टीण्डों बनने की अवस्था": 26
            }
          },
          "bag": 50,
          "unit": "kg",
          "last_week": 21
        },
        "gu": {
          "option_1": {
            "urea": 105,
            "ssp": 152,
            "mop": 40,
            "urea_breakup": {
              "જમીનની તૈયારી અને વાવણી પહેલા નો સમય": 53,
              "વનસ્પતિ વિકાસ તબક્કો": 26,
              "ફુલ ખીલવા થી કેરી (જીંડવા) ના વિકાસ નો તબક્કો": 26
            }
          },
          "option_2": {
            "urea": 85,
            "dap": 53,
            "mop": 40,
            "urea_breakup": {
              "જમીનની તૈયારી અને વાવણી પહેલા નો સમય": 32,
              "વનસ્પતિ વિકાસ તબક્કો": 26,
              "ફુલ ખીલવા થી કેરી (જીંડવા) ના વિકાસ નો તબક્કો": 26
            }
          },
          "bag": 50,
          "unit": "kg",
          "last_week": 21
        }
      },
      "4": {
        "hi": {
          "option_1": {
            "urea": 107,
            "ssp": 126,
            "mop": 20,
            "urea_breakup": {
              "जुताई के समय": 53,
              "छोटा पौधा": 27,
              "वनस्पति अवस्था": 27
            }
          },
          "option_2": {
            "urea": 90,
            "dap": 44,
            "mop": 20,
            "urea_breakup": {
              "जुताई के समय": 34,
              "छोटा पौधा": 28,
              "वनस्पति अवस्था": 28
            }
          },
          "bag": 50,
          "unit": "kg",
          "last_week": 14
        },
        "mr": {
          "option_1": {
            "urea": 107,
            "ssp": 126,
            "mop": 20,
            "urea_breakup": {
              "नांगरणीच्या वेळी": 53,
              "फुटवे बनण्याची अवस्था": 27,
              "ठुशी बनण्याची अवस्था": 27
            }
          },
          "option_2": {
            "urea": 90,
            "dap": 44,
            "mop": 20,
            "urea_breakup": {
              "नांगरणीच्या वेळी": 34,
              "फुटवे बनण्याची अवस्था": 28,
              "ठुशी बनण्याची अवस्था": 28
            }
          },
          "bag": 50,
          "unit": "kg",
          "last_week": 14
        }
      },
      "5": {
        "hi": {
          "option_1": {
            "urea": 176,
            "ssp": 253,
            "mop": 70,
            "urea_breakup": {
              "जुताई के समय": 59,
              "वनस्पति अवस्था": 59,
              "फ़ूल अवस्था": 59
            }
          },
          "option_2": {
            "urea": 140,
            "dap": 88,
            "mop": 70,
            "urea_breakup": {
              "जुताई के समय": 24,
              "वनस्पति अवस्था": 58,
              "फ़ूल अवस्था": 58
            }
          },
          "bag": 50,
          "unit": "kg",
          "last_week": 11
        }
      },
      "6": {
        "hi": {
          "option_1": {
            "urea": 70,
            "ssp": 101,
            "mop": 28,
            "urea_breakup": {
              "जुताई के समय": 18,
              "छोटा पौधा": 35,
              "वनस्पति अवस्था": 18
            }
          },
          "option_2": {
            "urea": 58,
            "dap": 35,
            "mop": 28,
            "urea_breakup": {
              "जुताई के समय": 4,
              "छोटा पौधा": 36,
              "वनस्पति अवस्था": 18
            }
          },
          "bag": 50,
          "unit": "kg",
          "last_week": 11
        },
        "gu": {
          "option_1": {
            "urea": 70,
            "ssp": 101,
            "mop": 28,
            "urea_breakup": {
              "જમીનની તૈયારી અને વાવણી પહેલા નો સમય": 18,
              "નાના છોડ": 35,
              "વનસ્પતિ વિકાસ તબક્કો": 18
            }
          },
          "option_2": {
            "urea": 58,
            "dap": 35,
            "mop": 28,
            "urea_breakup": {
              "જમીનની તૈયારી અને વાવણી પહેલા નો સમય": 4,
              "નાના છોડ": 36,
              "વનસ્પતિ વિકાસ તબક્કો": 18
            }
          },
          "bag": 50,
          "unit": "kg",
          "last_week": 11
        }
      },
      "7": {
        "hi": {
          "option_1": {
            "urea": 53,
            "ssp": 101,
            "mop": 14,
            "urea_breakup": {
              "जुताई के समय": 26,
              "वनस्पति अवस्था": 26
            }
          },
          "option_2": {
            "urea": 40,
            "dap": 35,
            "mop": 14,
            "urea_breakup": {
              "जुताई के समय": 13,
              "वनस्पति अवस्था": 26
            }
          },
          "bag": 50,
          "unit": "kg",
          "last_week": 11
        }
      },
      "8": {
        "hi": {
          "option_1": {
            "urea": 217,
            "ssp": 313,
            "mop": 86,
            "urea_breakup": {
              "जुताई के समय": 72,
              "वनस्पति अवस्था": 72,
              "फ़ूल अवस्था": 72
            }
          },
          "option_2": {
            "urea": 173,
            "dap": 109,
            "mop": 86,
            "urea_breakup": {
              "जुताई के समय": 29,
              "वनस्पति अवस्था": 72,
              "फ़ूल अवस्था": 72
            }
          },
          "bag": 50,
          "unit": "kg",
          "last_week": 11
        }
      },
      "9": {
        "hi": {
          "option_1": {
            "urea": 88,
            "ssp": 152,
            "mop": 42,
            "urea_breakup": {
              "जुताई के समय": 29,
              "वनस्पति अवस्था": 29,
              "फ़ूल अवस्था": 29
            }
          },
          "option_2": {
            "urea": 67,
            "dap": 53,
            "mop": 42,
            "urea_breakup": {
              "जुताई के समय": 9,
              "वनस्पति अवस्था": 29,
              "फ़ूल अवस्था": 29
            }
          },
          "bag": 50,
          "unit": "kg",
          "last_week": 11
        }
      },
      "10": {
        "hi": {
          "option_1": {
            "urea": 217,
            "ssp": 313,
            "mop": 88,
            "urea_breakup": {
              "जुताई के समय": 109,
              "वनस्पति अवस्था": 55,
              "फल अवस्था": 55
            }
          },
          "option_2": {
            "urea": 178,
            "dap": 109,
            "mop": 88,
            "urea_breakup": {
              "जुताई के समय": 68,
              "वनस्पति अवस्था": 55,
              "फल अवस्था": 55
            }
          },
          "bag": 50,
          "unit": "kg",
          "last_week": 11
        }
      },
      "11": {
        "hi": {
          "option_1": {
            "urea": 54,
            "ssp": 312,
            "mop": 125,
            "urea_breakup": {
              "जुताई के समय": 27,
              "वनस्पति अवस्था": 14,
              "फ़ूल अवस्था": 14
            }
          },
          "option_2": {
            "urea": 27,
            "dap": 109,
            "mop": 125,
            "urea_breakup": {
              "जुताई के समय": 0,
              "वनस्पति अवस्था": 14,
              "फ़ूल अवस्था": 14
            }
          },
          "bag": 50,
          "unit": "kg",
          "last_week": 11
        }
      },
      "12": {
        "hi": {
          "option_1": {
            "urea": 54,
            "ssp": 625,
            "mop": 83,
            "urea_breakup": {
              "जुताई के समय": 27,
              "वनस्पति अवस्था": 14,
              "फ़ूल अवस्था": 14
            }
          },
          "option_2": {
            "urea": 27,
            "dap": 217,
            "mop": 83,
            "urea_breakup": {
              "जुताई के समय": 0,
              "वनस्पति अवस्था": 14,
              "फ़ूल अवस्था": 14
            }
          },
          "bag": 50,
          "unit": "kg",
          "last_week": 11
        }
      },
      "13": {
        "hi": {
          "option_1": {
            "urea": 261,
            "ssp": 312,
            "mop": 83,
            "urea_breakup": {
              "जुताई के समय": 35,
              "फ़ूल अवस्था": 35,
              "संपुट निर्माण अवस्था": 35
            }
          },
          "option_2": {
            "urea": 219,
            "dap": 109,
            "mop": 83,
            "urea_breakup": {
              "जुताई के समय": 18,
              "फ़ूल अवस्था": 35,
              "संपुट निर्माण अवस्था": 35
            }
          },
          "bag": 50,
          "unit": "kg",
          "last_week": 11
        }
      }
    }
  }
}