{
  "status_code": 0,
  "status_message": "",
  "data": {
    "result": {
      "upload_picture": 0,
      "points_earned": "0",
      "quiz_response": 0,
      "expert_advice": 0,
      "reward_earned": [],
      "feedback_questions": [
        "फसल की जानकारी",
        "एक्सपर्ट की सहायता",
        "मौसम की जानकारी"
      ]
    }
  }
}