{
  "name": "माक्यावरील केवडा",
  "type": "d",
  "cause_organism": "",
  "symptoms": [
    "प्रथम, पाने हिरव्या ते पिवळ्या रंगात बदलतात आणि नंतर तपकिरी होतात.",
    "नंतर खोडावर, वेगवेगळ्या रंगाची बुरशी विकसित होते, जसे की फुसेरियममुळे पांढरा रंग, जिबरेला मुळे गुलाबी किंवा लाल रंग येतो, तर डिप्लोडिया आणि कोलेटोट्रिकमच्या संसर्गामुळे काळी बुरशी विकसित होते.",
    "रोगग्रस्त झाडाची देठ अंगठा आणि तर्जनी यांच्यामध्ये दाबल्यास प्रभावित भाग आकुंचन पावतो आणि त्यात बुरशी आढळते.",
    "संक्रमित देठाचे दोन भाग केले असता त्यात पांढरी/गुलाबी किंवा लाल/काळी बुरशी आढळते.",
    "गंभीर प्रकरणांमध्ये, बुरशी मक्याच्या कानिसावर पसरते, परिणामी संपूर्ण कणीस आणि दाने  कुजतात.",
    "प्रभावित संपूर्ण शेत कोरडे आणि पांढऱ्या राखडीने भरून जाते. त्या मुळे पूर्ण झाडे मारून गेलेली दिसतात."
  ],
  "advisory": [
    "केवडा रोग बियाणे आणि माती मधून पसरतो.",
    "फुलांच्या अवस्थेनंतर रोगकारक वनस्पतीवर परिणाम करतो.",
    "उच्च तापमान आणि जमिनीतील कमी आर्द्रता (दुष्काळ) रोगास उत्तेजन देते."
  ],
  "management": [
    {
      "advisory": "रोगग्रस्त झाडे आणि रोपांचे भाग शेतातून गोळा करून नष्ट करावे.",
      "note": "",
      "chemical_usage": ""
    },
    {
      "advisory": "शेते, धरणे आणि जलमार्गातून तणांचे यजमान काढावे आणि नष्ट करून टाकावे.",
      "note": "",
      "chemical_usage": ""
    },
    {
      "advisory": "पिकात खताची कमतरता भासू देऊ नये.",
      "note": "",
      "chemical_usage": ""
    },
    {
      "advisory": "80 किलो पालाश  प्रति 1 हेक्टर शेतात टाकावे.",
      "note": "",
      "chemical_usage": ""
    },
    {
      "advisory": "शेतात पिकाला  पाण्याची कमतरता भासू देऊ नये आणि शेताला  नियमित सिंचित करावे.",
      "note": "",
      "chemical_usage": ""
    },
    {
      "advisory": "रोगाचा प्रादुर्भाव रोखण्यासाठी खाली दिलेल्या बुरशीनाशकाचा वापर करावा",
      "note": "जमिनीवर कोणतेही एक बुरशीनाशक 1.25 किलो प्रति हेक्टर किंवा 50 ग्रॅम प्रति 15 लिटर पाण्यात मिसळून फवारणी करावी",
      "chemical_usage": [
        "कॉपर ऑक्सीक्लोराइड 50% WP",
        "प्रोपिनेब 70% WP",
        "क्लोरोथेलोनिल 75% WP",
        "कार्बेंडाजीम 12% + मेनकोजेब  64% WP"
      ]
    },
    {
      "advisory": "वरील औषध दिल्यानंतर 15 ते 20 दिवसांनी 2.5 किलो ट्रायकोडर्मा विरिडी 100  किलो कुजलेल्या शेणखतात  किंवा कोरड्या  मातीमध्ये प्रति 1 हेक्टर जमिनीत समान रीतीने पसरवावे.",
      "note": "",
      "chemical_usage": ""
    }
  ],
  "chemical_info": [
    {
      "technical": "पालाश",
      "normal": [
        "सरदार-एम.ओ.पी. (जी.एस.एफ.सी.)",
        "  कृभको-एम.ओ.पी. (कृभको)"
      ]
    },
    {
      "technical": "कॉपर ऑक्सीक्लोराइड 50% WP",
      "normal": [
        "ब्लू कोपर (सिंजेन्टा)",
        " ब्लीटोक्स (टाटा रैलिस)",
        " कुप्रीना (पी.आई.)",
        " धानुकोप (धानुका)",
        " ट्रस्ट (कृषि रसायन)",
        " ट्रूकोप (इन्डोफिल)",
        " मेईनकोप (अदामा)"
      ]
    },
    {
      "technical": "प्रोपिनेब 70% WP",
      "normal": [
        "एन्ट्राकोल (बायर)",
        " सानीपेब (पी.आई.)",
        " आरूष (कोरोमंडल)",
        " प्रोक्षीमेईन (अदामा)",
        " स्केल (कृषि रसायन)"
      ]
    },
    {
      "technical": "क्लोरोथेलोनिल 75% WP",
      "normal": [
        "कवच (सिंजेन्टा)",
        " जटायु (कोरोमंडल)",
        " इशान (टाटा रैलिस)",
        " के-नील (कृषि रसायन)"
      ]
    },
    {
      "technical": "कार्बेंडाजीम 12% + मेनकोजेब  64% WP",
      "normal": [
        "साफ़ (यु.पी.एल.)",
        " सिक्सर (धानुका)",
        " कापेनी (कोरोमंडल)",
        " कम्पनियोन (इन्डोफिल)",
        " मेकोबेन-सी (अदामा)",
        " सी.एम.-75 (कृषि रसायन)"
      ]
    },
    {
      "technical": "स्यूडोमोनास फ्लोरेसेंस",
      "normal": [
        "नेमा-ll (कृषि रसायन)",
        " सूडोज़ोन (एग्रीलैंड बायोटेक)",
        " बायोमोनास & शील्ड-प्लस (बायोटेक इंटरनेशनल)",
        " सरदार-स्यूडो (जी.एस.एफ.सी.)"
      ]
    }
  ],
  "advisory_image": [
    "stalk_rot_image1.jpg"
  ],
  "images": {
    "stage_1": {
      "name": "",
      "image": [
        "stalk_rot_image1.jpg",
        "stalk_rot_image2.jpg",
        "stalk_rot_image3.jpg",
        "stalk_rot_image4.jpg",
        "stalk_rot_image5.jpg",
        "stalk_rot_image6.jpg",
        "stalk_rot_image7.jpg",
        "stalk_rot_image8.jpg",
        "stalk_rot_image9.jpg",
        "stalk_rot_image10.jpg",
        "stalk_rot_image11.jpg",
        "stalk_rot_image12.jpg"
      ]
    }
  }
}