{
  "project_info": {
    "project_number": "207345651421",
    "firebase_url": "https://rongo-app.firebaseio.com",
    "project_id": "rongo-app",
    "storage_bucket": "rongo-app.appspot.com"
  },
  "client": [
    {
      "client_info": {
        "mobilesdk_app_id": "1:207345651421:android:8eaee6278457d3fd619534",
        "android_client_info": {
          "package_name": "com.rongoapp"
        }
      },
      "oauth_client": [
        {
          "client_id": "207345651421-8e735ihu1a1i4rffbiqu1k5tjgbbbndu.apps.googleusercontent.com",
          "client_type": 3
        }
      ],
      "api_key": [
        {
          "current_key": "AIzaSyAgOg5AOePMAB6agyHD21TgEJHvXj1ujcQ"
        }
      ],
      "services": {
        "appinvite_service": {
          "other_platform_oauth_client": [
            {
              "client_id": "207345651421-8e735ihu1a1i4rffbiqu1k5tjgbbbndu.apps.googleusercontent.com",
              "client_type": 3
            }
          ]
        }
      }
    }
  ],
  "configuration_version": "1"
}