{
  "name" :"બોરોન",
  "type" :"n",
  "cause_organism": ["બોરોન"],
  "symptoms": ["યુવાન પાંદડાઓનની દાંડી નાની રહે છે અને ઘાટા લીલા રંગનાં રિંગ્સ પણ જોવા મળે છે","પાંદડાની મુખ્ય ડાળી મરી જાય છે અને બદલામાં બાજુમાંથી વધુ નાની ડાળીઓ વિકસે છે","છેવટે, યુવાન પાંદડા પાણીના ડાઘ સાથે જાડા અને બરડ થઈ જાય છે અને પછીથી ખરી પડે છે","કપાસની કેરી (જીંડવા) નાના રહે છે અને મોડા પાકે છે","કપાસની કેરી (જીંડવા) તેના આધારે કાળા થઈ જાય છે અને સુકાઈ જાય છે"],
  "advisory": ["ઊંચી એસિડિક જમીન, અત્યંત જાડી બનાવટની રેતીલી જમીન, આગ્નેસ ખડકોથી બનેલી એસિડિક માટી અને વધુ પડતી ચૂનાની માટીમાં આ ઉણપ જોવા મળે છે"],
  "management": ["જમીન પરીક્ષણના આધારે 1 હેક્ટર દીઠ 5 થી 10 કિલો બોરેક્સ ખેતરમાં આપો.","જ્યારે બોરોનની ઉણપના લક્ષણો જોવા મળે ત્યારે 2 ગ્રામ બોરેક્સ અથવા બોરિક એસિડ ને 1 લિટર પાણીમાં ભેળવીને છંટકાવ કરો અને 10 થી 15 દિવસના અંતરે 2 થી 3 વખત પુનરાવર્તન કરવું.","બોરોનની ઉણપને રોકવા માટે, 2 ગ્રામ બોરીક એસિડ અથવા બોરેકસ 1 લીટર પાણીમાં ભેળવીને ફૂલ આવે તે પહેલાં કે પછી છોડ પર છંટકાવ કરો."],
  "chemical_info": {
    "0":{
        "technical": "બોરેક્સ અથવા બોરિક એસિડ",
        "normal": ["સરદાર-બોરોન 20 (જી.એસ.એફ.સી.)"]
      }
    },
 	"advisory_image":["cotton_bo_image1.jpg"],
    "images": {
      "stage_1": {"name":"","image":["cotton_bo_image1.jpg","cotton_bo_image2.jpg"]}
    }
}