{
  "name" :"લાલ કપાસ બગ",
  "type" :"p",
  "cause_organism": ["રેડ કોટન બગ"],
  "symptoms": ["જંતુઓ પુખ્ત અને બચ્ચા (નિમ્ફ) બંને અવસ્થામાં પાંદડાનો, કપાસની કેરી (જીંડવા) નો અને બીજ નો રસ ચૂસે છે","અસરગ્રસ્ત કપાસની કેરી (જીંડવા) માંથી ડાઘવાળું રૂ નીકળે છે અને સાથે જંતુના મળ અથવા શરીરમાંથી ઉત્સર્જિત રસ જોવા મળે છે","ડાઘવાળું રૂ પાછળથી પીળા રંગમાં ફેરવાય છે","કપાસની કેરી (જીંડવા) નો સડો બેક્ટેરિયા ના કારણે થાય છે જેમાં કપાસની કેરી (જીંડવા) ની અંદર પણ સડો લાગે છે","અસરગ્રસ્ત કપાસની કેરી (જીંડવા) ઘણીવાર જંતુઓને કારણે સડી જાય છે"],
  "advisory": ["લાલ કપાસ બગ હુમલાને કારણે તેલનું પ્રમાણ ઓછું થઇ જાય છે અને કપાસની ગુણવત્તા અને બીજ વાવણી માટે અયોગ્ય બની જાય છે"],
  "management": ["ખેતરમાં નાઇટ્રોજનને એક સાથે આપવાને બદલે, નાઇટ્રોજનને 3 થી 4 ભાગમાં વિભાજિત કરીને આપો.","સૌથી સરળ નિયંત્રણ માટે મુખ્ય પાકની પહેલાં અને તેની આસપાસ ભીંડા વગેરે જેવા વૈકલ્પિક પાકના છોડને દૂર કરો.","શરૂઆતના તબક્કા દરમિયાન જંતુઓની વસ્તી ઘટાડવા માટે હાથથી જંતુઓને દૂર કરો અને તેનો નાશ કરો.","પાકમાંથી જંતુઓને દૂર કરવા માટે, દોરડાને કેરોસીન મિશ્રિત પાણીમાં ડૂબાડી ને ખેતરમાં છોડ ઉપરથી ફેરવો.","જ્યારે પણ જીંડવા ખુલે અને કપાસ બહાર આવે ત્યારે તરત જ ઉપાડી (વીણી) લો.","નીચે આપેલમાંથી કોઈ પણ એક જંતુનાશક દવાને 1 લિટર પાણીમાં ભેળવીને, 10 થી 15 દિવસના અંતરે 2 થી 3 વખત છોડ પર છંટકાવ કરો:<br><li> 2.0 ગ્રામ એસીફેટ 75% SP</li><li> 2.0 મિલીલીટર કલોરપાયરીફોર્સ 20% EC</li><li> 0.65 મિલીલીટર લેમ્બડા સાયહેલોથ્રિન 5% EC</li><li> 0.5 મિલીલીટર થાયોમેથોકઝામ 12.6% + લેમ્બડા સાયહેલોથ્રિન 9.5% ZC</li>"],
  "chemical_info": {
    "0":{
        "technical": "એસીફેટ 75% SP",
        "normal": ["લાન્સર (યુ.પી.એલ.)","ઓવલ (પી.આઈ.)","અસાટાફ (ટાટા રાલિસ)","એસેન્ટ 787 (સુમિલ)","ચેતક (જી.એસ.પી.)","અસેસુલ (સલ્ફર મિલ્સ)","એસેફેક્સ (એક્સલ)"]
    },
    "1":{
        "technical": "કલોરપાયરીફોર્સ 20% EC",
        "normal": ["દુર્સબન (ડાવ એગ્રો)","ક્લોરોબેન (યુ.પી.એલ.)","તાફાબેન (ટાટા રાલિસ)","ત્રીસેલ 20 (એક્સેલ)","ત્રિશૂલ (કોરોમંડલ)","કોરોસીલ (જી.એસ.પી.)","ક્રિશાન (કૃષિ રસાયન)","પ્રીમેઈન (અદામા)"]
    },
    "2":{
        "technical": "લેમ્બડા સાયહેલોથ્રિન 5% EC",
        "normal": ["કરાટે (સિજેન્ટા)","એલ.ઓ.સી.-5 (કૃષિ રસાયન)","રીવા-5 (ટાટા રાલિસ)","લેમડેક્સ સુપર (અદામા)","સંત્રી (જી.એસ.પી.)","ડ્રૈગન 701 (સુમિલ)","મસ્ટંગ (સલ્ફર મિલ્સ)"]
    },
    "3":{
        "technical": "થાયોમેથોકઝામ 12.6% + લેમ્બડા સાયહેલોથ્રિન 9.5% ZC",
        "normal": ["અલીકા (સિજેન્ટા)","કોરેક્ટે (કૃષિ રસાયન)"]
      }
    },
 	"advisory_image":["cotton_red_cotton_bug_image1.jpg"],
    "images": {
      "stage_1": {"name":"","image":["cotton_red_cotton_bug_image1.jpg","cotton_red_cotton_bug_image2.jpg","cotton_red_cotton_bug_image3.jpg","cotton_red_cotton_bug_image4.jpg"]}
    }
}