{
  "name" :"पोटैशियम",
  "type" :"n",
  "cause_organism": ["पोटैशियम"],
  "symptoms": ["पुरानी पत्तियां पीली होकर लटक जाती है, नसों के बीच पीले धब्बे होते हैं और किनारे भूरे रंग के हो जाते हैं","पत्ती किनारे और नोक से सूख जाती हैं और बाद में, झुक कर टूट जाती हैं","पत्तियां भूरे से लाल भूरे रंग की होती हैं और सूख जाती हैं"],
  "advisory": ["अम्लीय मिट्टी, खराब जल निकासी वाली जगहों पर और कार्बनिक अम्ल अधिक मात्रा में मौजूद हो वहाँ कमी पाई जाती है","बार-बार खेती में उपयोग करने वाली मिट्टी में और जिसमे फसल के अवशेष को मिट्टी से निकाला जाता है वहां कमी पाई जाती है"],
  "management": ["मृदा परीक्षण के आधार पर पोटैशियम की खाद का प्रयोग करेंं।","2.5 लीटर पोटैशियम मोबिलाइजिंग बैक्टीरिया (के.एम.बी.) को खेत में सीधे पानी में या 25 किलोग्राम मिट्टी के साथ मिलाकर प्रति 1 हैक्टयर में दे।","फसल में खाद की कमी दूर करने के लिए 10 ग्राम म्यूरेट ऑफ़ पोटाश (एम.ओ.पी.) प्रति 1 लीटर पानी में मिलाकर छिड़काव करेंं और 10 से 15 दिनों के अंतराल पर इसे दोहराएँ।","कम पोटैशियम मात्रा वाली मिट्टी में 55 से 65 किलोग्राम म्यूरेट ऑफ़ पोटाश (एम.ओ.पी.) प्रति 1 हैक्टेयर के दर से खेत में डाले।"],
  "chemical_info": {
    "0":{
        "technical": "पोटैशियम मोबिलाइजिंग बैक्टीरिया",
        "normal": ["पोटैशियम मोबिलाइजिंग बैक्टीरिया-के.एम.बी. (इफ्फको)","पोटैशियम मोबिलाइजिंग बैक्टीरिया-के.एम.बी. (कृभको)","सरदार-पोटैशियम मोबिलाइजिंग बैक्टीरिया-के.एम.बी. (जी.एस.एफ.सी.)"]
    },
    "1":{
        "technical": "म्यूरेट ऑफ़ पोटाश (एम.ओ.पी.)",
        "normal": ["सरदार-एम.ओ.पी. (जी.एस.एफ.सी.)","कृभको-एम.ओ.पी. (कृभको)"]
      }
    },
 	"advisory_image":["cotton_k_image1.jpg"],
    "images": {
      "stage_1": {"name":"","image":["cotton_k_image1.jpg","cotton_k_image2.jpg","cotton_k_image3.jpg","cotton_k_image4.jpg","cotton_k_image5.jpg"]}
    }
}