{
  "name": "आर्द्र गलन / अंकुरों सड़न",
  "type": "d",
  "cause_organism": "",
  "symptoms": [
    "रोग के लक्षण अंकुरण में, युवा पौधों और पुराने पौधों पर भी पाए जाते हैं।",
    "इस रोग से फसल के बीज सड जाते है और पूर्व अंकुरों सडन का कारण बन सकता है।",
    "अंकुरण में मिट्टी के पास तने की शुरुआती हिस्से पर लाल से गहरे भूरे रंग के घाव विकसित होते हैं।",
    "घाव आमतौर पर मुख्य जड़ और तने का शुरुआती हिस्से की बाहरी परत तक ही सीमित होते हैं।",
    "अंकुरण का तना और जड़ें सूखी, रेशेदार या कट जाती हैं और अंकुरण पौधे सुख जाते हैं।",
    "यदि घाव पूरे तने को घेर लेते हैं तो पौधे अत्यधिक रूखे हो जाते हैं और सुख जाते हैं खासकर नमी के तनाव की अवधि के दौरान।"
  ],
  "advisory": [
    "रोग के फेलावे के लिए गर्म और नम मिट्टी,वर्षा के कारण वसंत ऋतु में बुवाई में देरी,उच्च मृदा कार्बनिक पदार्थ,शारीरिक या रासायनिक/खरपतवारनाशी से नुकसान के कारण पौधों में यह रोग पाया जाता हैं।",
    "यह रोगाणु मिट्टी, उपकरण, पानी और  हवा के माध्यम से फेलता है।"
  ],
  "management": [
    {
      "advisory": "बिना अंकुरित बीजों को हटा दें।",
      "note": "",
      "chemical_usage": ""
    },
    {
      "advisory": "खाली जगहो पर स्वस्थ और उपचारित बीजों को दोबारा बुवाई करेंं।",
      "note": "",
      "chemical_usage": ""
    },
    {
      "advisory": "कोई भी एक फफूंदनाशक से 1.0 किलोग्राम बीज को उपचारीच करें",
      "note": "2.0 मिलीलीटर डायफेनकोनाजोल 3% FS,0.5 मिलीलीटर टेबूकोनाजोल 5.4 % FS,2.0 ग्राम मेटालैक्सिल 8% + मैनकोजेब 64% WP,4.0 ग्राम कार्बोक्सिन 37.5% + थायरम 37.5% DS,5.0 ग्राम ट्राइकोडर्मा विरिडी",
      "chemical_usage": ""
    },
    {
      "advisory": "रोग को फैलने से रोकने के लिए निचे दिये गये फफूंदनाशक का इस्तेमाल करें",
      "note": "कोई एक फफूंदनाशक को 1.25 किलोग्राम प्रति 1 हैक्टेयर में या फिर 50 ग्राम प्रति 15 लीटर पानी में मिलाकर जमीन पर छिड़काव करें",
      "chemical_usage": [
        "मेटालैक्सिल 8% + मैनकोजेब 64% WP",
        "कार्बेन्डाजिम 12% + मैनकोजेब 63% WP"
      ]
    }
  ],
  "chemical_info": [
    {
      "technical": "डायफेनकोनाजोल 3% FS",
      "normal": [
        "डीवीडेंट (सिंजेन्टा)"
      ]
    },
    {
      "technical": "टेबूकोनाजोल 5.4 % FS",
      "normal": [
        "रेक्सिल इजी (बायर)",
        " ओरियस-एफ.एस. (अदामा)"
      ]
    },
    {
      "technical": "मेटालैक्सिल 8% + मैनकोजेब 64% WP",
      "normal": [
        "मास्टर (टाटा रैलिस)",
        " युनिलेक्स (यु.पी.एल.)",
        " मेटको 8-64 (इन्डोफिल)",
        " मेनेक्स-720 (सुमिल)",
        " मेटल प्लस (जी.एस.पी.)",
        " मेटलमेन (सुल्फर मिल्स)",
        " मिक्सोल-72 (क्रिस्टल)"
      ]
    },
    {
      "technical": "कार्बोक्सिन 37.5% + थायरम 37.5% DS",
      "normal": [
        "विटावैक्स पावर (धानुका)"
      ]
    },
    {
      "technical": "ट्राइकोडर्मा विरिडी",
      "normal": [
        "केसाना (कृषि रसायन)",
        " मोनिटर (एग्रीलैंड बायोटेक)",
        " बायोडर्मा  & प्रोटेक्टर (बायोटेक इंटरनेशनल)",
        " सरदार-ट्रायको (जी.एस.एफ.सी.)"
      ]
    },
    {
      "technical": "कार्बेन्डाजिम 12% + मैनकोजेब 63% WP",
      "normal": [
        "साफ़ (यु.पी.एल.)",
        " सिक्सर (धानुका)",
        " कापेनी (कोरोमंडल)",
        " कम्पनियोन (इन्डोफिल)",
        " मेकोबेन-सी (अदामा)",
        " सी.एम.-75 (कृषि रसायन)"
      ]
    }
  ],
  "advisory_image": [
    "castor_do_image1.jpg"
  ],
  "images": {
    "stage_1": {
      "name": "",
      "image": [
        "castor_do_image1.jpg",
        "castor_do_image2.jpg",
        "castor_do_image3.jpg"
      ]
    }
  }
}