{
	"name": "चूहा",
	"type": "p",
	"cause_organism": "",
	"symptoms": ["बुवाई के हो जाने बाद चूहे बोए गए बीज खाते है।", "भुट्टा बन जाने के बाद, चूहे भुट्टे के दाने खाकर उसे बर्बाद कर देते है।"],
	"advisory": ["यह पाया गया है कि चूहे मेंढ़ों पर बिल बनाकर रहते हैं इसलिए खेतों मेंं मेंढ़ों की ऊंचाई तथा चौड़ाई यथा संभव कम रखनी चाहिए,जिससे चूहे उस पर बिल न बना सके।", "इसी प्रकार खरपतवार तथा पिछली फसल का कचरा चूहों को आकर्षित करता है व इसमेंं चूहे ना केवल सुरक्षित रहतें हैं, बल्कि मुख्य फसल तैयार होने तक उस पर जीवनयापन करते हैं। इसलिए खरपतवार नियंत्रित कर स्वछ खेती करने से चूहों की संख्या मेंं कमी की जा सकती है।"],
	"management": [{
		"advisory": "विष चुग्गों को चूहों के ताज़े बिलों मेंं (10 से 15 ग्राम प्रति बिल की दर से) डाल देना चहिये।",
		"note": "",
		"chemical_usage": ""
	}, {
		"advisory": "ताजा बिलों की पहचान के लिए जरुरी है कि सर्वप्रथम खेत मेंं व आसपास मौजूद सभी बिलों को बंद करेंं, अगले दिन जितने बिल खुले मिले,उन्हें ताजा बिल कहा जाता है।",
		"note": "",
		"chemical_usage": ""
	}, {
		"advisory": "सादा चुग्गा डालने के 1 से 2 दिन बाद उन्ही बिलों मेंं विष चुग्गा डालना चाहिए",
		"note": "सादा चुग्गा बनाने का तरीका",
		"chemical_usage": ["1 किलोग्राम सादा चुग्गा बनाने के के लिए 1 किलोग्राम अनाज (बाजरा/गेहूँ) मेंं 20 ग्राम खाने का तेल (मूंगफली/सरसोंं/तिल) मिलाकर चुपड़ लें।"]
	}, {
		"advisory": "",
		"note": "विष चुग्गा बनाने का तरीका",
		"chemical_usage": ["ऊपर बताए अनुसार पहले 1 किलोग्राम सादा चुग्गा बनाने दे।", "विष चुग्गा बनाने के लिए  1 किलोग्राम सादा चुग्गे में 20 ग्राम जिंक फोस्फाइड 80% WP या 20 ग्राम ब्रोमाडियोलोन 0.005% RB प्रति 1 किलोग्राम सादा चुग्गे में अच्छी तरह से मिलाना चहिये ताकि विष पाउडर खाद्यान्न की तेलीय सतह पर एक जैसा चिपक जाये।", "ज़िंक फ़ोस्फाइड चुग्गे क़ी 6 से 8 ग्राम या ब्रोमाडियोलोन चुग्गे क़ी 15 से 20 ग्राम मात्रा प्रति बिल की दर से चूहों के ताज़े बिलों मेंं खूब अंदर तक़ धकेल देना चाहिये।"]
	}, {
		"advisory": "इस बात का ध्यान अवश्य रखें कि जहरीले दाने बिलों के बाहर नहीं बिखरें वरना इनसे अन्य पशु- पक्षी या वन्य जीव को हानि पहुंचा सकती है।",
		"note": "",
		"chemical_usage": ""
	}, {
		"advisory": "अगले दिन सूर्यादय से पहले खेत मेंं घूम कर मृत चूहों को इकठ्ठा कर लें और उन्हें जमीं मेंं गहरा दबा दे।",
		"note": "",
		"chemical_usage": ""
	}],
	"chemical_info": [{
		"technical": "जिंक फोस्फाइड 80% WP",
		"normal": ["रेटोल (यु.पी.एल.)", " रेटफ्री (स्वाल)", " रेटकिल (बायो-स्टेट)"]
	}, {
		"technical": "ब्रोमाडियोलोन 0.005% RB",
		"normal": ["रोबेन (पेस्ट कंट्रोल इंडिया)", " राकुमिन स्योर (बायर)"]
	}],
	"advisory_image": ["rat_image1.jpg"],
	"images": {
		"stage_1": {
			"name": "",
			"image": ["rat_image1.jpg", "rat_image2.jpg", "rat_image3.jpg", "rat_image4.jpg"]
		}
	}
}