{
  "name" :"गन्धी बग",
  "type" :"p",
  "cause_organism": ["लेप्टोकोरिसा ओटोरियस"],
  "symptoms": ["धान की फसल में परागण के बाद, इस कीट के युवा तथा निम्फ दोनों ही भरते हुये दानों युक्त बालियों पर संक्रमण करते हैं तथा दूधिया अवस्था के दानों में बने रस को चूस को चूसते हैं","क्षतिग्रस्त दानों पर भूरें रंग का धब्बा होता है, इसी स्थान से कीट ने धान के दाने में छेद करके रस चूसा होता है","खेत में सीधी खड़ी बालियों से इनकी क्षति अनुमानित की जा सकती है, क्योंकि इन बालियों में दाने खाली होते हैं","यह कीट खेत में दुर्गन्ध पैदा करता है, इसलिए इसे गन्धी बग कहा जाता है"],
  "advisory": ["इस कीट के युवा तथा निम्फ दोनों ही नुकसान करते हैं"],
  "management": ["खेतों में से और खेत की मेढ़ों पर से खरपतवार को नियंत्रित करें।","खेत मेंं से वैकल्पिक फसल या जंगली घास दूर करें।","नीचे दिये गये किटनाशक में से कोई भी एक किटनाशक को प्रति 1 लीटर पानी में  मिलाकर पौधों पर छिड़काव करें।:<br><li> 2.0 ग्राम एसीफेट 75% SP</li><li> 0.25 ग्राम थियामेथोक्साम 25% WG</li><li> 0.65 मिलीलीटर लैम्ब्डा साइहेलोथ्रिन 5% EC</li><li> 0.5 मिलीलीटर थियामेथोक्साम 12.6% + लैम्ब्डा साइहेलोथ्रिन 9.5% ZC</li>"],
  "chemical_info": {
    "0":{
        "technical": "एसीफेट 75% SP",
        "normal": ["लान्सर (यु.पी.एल.)","ओवल (पी.आई.)","असाटाफ (टाटा रैलिस)","एसेंट 787 (सुमिल)","चेत्तक (जी.एस.पी.)","असेसुल (सल्फ़र मिल्स)","एसेफ़ेक्स (एक्सेल)"]
    },
    "1":{
        "technical": "थियामेथोक्साम 25% WG",
        "normal": ["एक्टारा (सिंजेन्टा)","अनंत (टाटा रैलिस)","मेक्सिमा (पी.आई.)","अरेवा (धानुका)","रेनोवा (यु.पी.एल.)","सकगन (अदामा)","स्पाईक (सल्फ़र मिल्स)","एक्स्ट्रा सुपर (क्रिस्टल)"]
    },
    "2":{
        "technical": "लैम्ब्डा साइहेलोथ्रिन 5% EC",
        "normal": ["कराटे (सिंजेन्टा)","एल.ओ.सी.-5 (कृषि रसायन)","रीवा-5 (टाटा रैलिस)","लेमडेक्स सुपर (अदामा)","संत्री (जी.एस.पी.)","ड्रैगन 701 (सुमिल)","मस्टंग (सल्फ़र मिल्स)"]
    },
    "3":{
        "technical": "थियामेथोक्साम 12.6% + लैम्ब्डा साइहेलोथ्रिन 9.5% ZC",
        "normal": ["अलीका (सिंजेन्टा)","कोरेक्टे (कृषि रसायन)"]
      }
    },
 	"advisory_image":["rice_gundhi_bug_image1.jpg"],
    "images": {
      "stage_1": {"name":"","image":["rice_gundhi_bug_image1.jpg","rice_gundhi_bug_image2.jpg","rice_gundhi_bug_image3.jpg"]}
    }
}