{
  "name" :"तांबा",
  "type" :"n",
  "cause_organism": ["तांबा"],
  "symptoms": ["तांबे की कमी के लक्षण सर्वप्रथम नई पत्तियों में दिखते हैं","नई पत्तियों में मध्यशिरा के दोनों तरफ पीले रंग की धारियाँ दिखती हैं","पत्तियों के सिरे पर गहरे भूरे रंग के घाव हो जाते हैं","अक्सर पत्तियों के सिर के पास नीले-हरीत एवं पीले रंग की हो जाती हैं","नई पत्तियां, सिर के पास खुल नहीं पाती हैं और नुकीली हो जाती हैं, जबकि पत्ती के आधार के हिस्से सामान्य दिखाई देते हैं"],
  "advisory": ["उच्च कार्बनिक पदार्थ युक्त मिट्टी ((हिस्टोसोल) ये कमी पाई जाती है","अति अपक्षरित, रेतीले बनावट वाली एवं चूना मिट्टी में ये कमी पाई जाती है","मिट्टी जिसमें जस्ता की मात्रा अत्यधिक हो और अम्लीय मिट्टी में अधिक चूना मिलाने की स्थिति में ये कमी पाई जाती है"],
  "management": ["रोपाई से पहले रोपो को 1 घंटा 1% कॉपर सल्फेट (CuSO4) के घोल में डूबकर रखें।","अम्लीय मिट्टी में अधिक चूने के प्रयोग से बचें क्योंकि यह तांबे के अवशोषण को कम कर सकता है।","तांबे की कमी के लक्षण दिखने पर 5 ग्राम कॉपर सल्फेट प्रति 1 लीटर पानी में मिलाकर छिड़काव करेंं और 10 से 15 दिनों के अंतराल पर इसे 2 से 3 बार दोहराएँ।","कम तांबे की मात्रा वाले मिट्टी में हर 5 साल पर 5 से 10 किलोग्राम कॉपर सल्फेट प्रति 1 हैक्टेयर की दर से प्रयोग करेंं।"],
  "chemical_info": {
    "0":{
        "technical": "कॉपर सल्फेट",
        "normal": ["कॉपर सल्फेट"]
      }
    },
 	"advisory_image":["rice_cu_image1.jpg"],
    "images": {
      "stage_1": {"name":"","image":["rice_cu_image1.jpg","rice_cu_image2.jpg"]}
    }
}