{
  "name": "मैंगनीज़",
  "type": "n",
  "cause_organism": "",
  "symptoms": [
    "मैंगनीज की कमी के लक्षण नई विकसित पत्तियों में पाए जाते हैं।",
    "पत्तियां पर बिखरे हुए, छोटे पीले रंग के धब्बे दिखने को मिलते हैं।",
    "शिरा के बीच भाग पीला हो जाता है, जबकि शिराएँ हरी रहती हैं और पत्ती के ऊपरी भाग से होकर आधार तक लाइने फैलती है।",
    "अत्यधिक कमी होने की स्थिति में पत्तियों पर भूरे धब्बे विकसित हो जाते हैं और गंभीर रूप से प्रभावित पत्तियाँ भूरी और मुरझा जाती हैं।",
    "तना पतला एवं कमजोर हो जाता है।"
  ],
  "advisory": [
    "कम कार्बनिक पदार्थ वाली लवणीय एंव क्षारीय भूमि में, निक्षालित एवं ऐसिडिक मिट्टी में और क्षरित मिट्टी जिसमे लोहे की अधिकता हो इसमें ये कमी पाई जाती है।",
    "अम्लीय मिट्टी में अधिक चूना मिलाने की स्थिति में भी ये कमी पाई जाती है।"
  ],
  "management": [
    {
      "advisory": "मैंगनीज़ की कमी के लक्षण दिखने पर 5 ग्राम मैंगनीज़ सल्फेट प्रति 1 लीटर पानी में मिलाकर छिड़काव करेंं और 10 से 15 दिनों के अंतराल पर इसे 2 से 3 बार दोहराएँ।",
      "note": "",
      "chemical_usage": ""
    },
    {
      "advisory": "कम मैग्निशियम की मात्रा वाले मिट्टी में 20 किलोग्राम मैंगनीज़ सल्फेट प्रति 1 हैक्टेयर के दर से खेत में डालें।",
      "note": "",
      "chemical_usage": ""
    }
  ],
  "chemical_info": [
    {
      "technical": "मैंगनीज़",
      "normal": [
        "मैंगनीज़ सल्फेट"
      ]
    }
  ],
  "advisory_image": [
    "bittergourd_mn_image1.jpg"
  ],
  "images": {
    "stage_1": {
      "name": "",
      "image": [
        "bittergourd_mn_image1.jpg"
      ]
    }
  }
}