{
  "name" :"तब्बाकू पत्ती विषाणु रोग",
  "type" :"d",
  "cause_organism": ["तब्बाकू स्ट्रीक वाइरस"],
  "symptoms": ["तीव्र या परिगलित चरण:","पौधे पर अनियमित बैंगनी धब्बे या ठोस परिगलित धब्बे दिखाई देते हैं","प्रारंभिक चरण:","नई पत्तियां विकसित होती हैं जिसकी नसों पीले रंग की हो जाती है लेकिन, बाकी का भाग सामान्य दिखाई देता है","पुरानी या देर के चरण:","पत्ती एक चिकनी बनावट के साथ सामान्य से मोटी हो जाता है, और पंखुड़ियों से अलग होकर सूखने लगती है"],
  "advisory": ["यह वायरल रोग है और संक्रमित कीट के माध्यम से फैलता है"],
  "management": ["नाइट्रोजन उर्वरक का अत्याधिक प्रयोग न करें तथा उर्वरक संतुलित मात्रा में ही प्रयोग करें।","खेतों मे से और खेत की मेढ़ों पर से खरपतवार को नियंत्रित करें।","10 मिलिलीटर एजाडिरेक्टिन 1500 ppm (0.15% EC) या 50 मिलीलीटर नीम बीज अर्क प्रति 1 लीटर पानी में मिलाकर शुरुआती लक्षणों के शुरू से महीने में दो बार छिड़काव करेंं।","नीचे दिये गये किटनाशक में से कोई भी एक किटनाशक को प्रति 1 लीटर पानी में  मिलाकर, 10 से 15 दिन के अंतराल पर, 2 से 3 बार पौधों पर छिड़काव करें।:<br><li> 1.5 मिलीलीटर बुप्रोफेज़िन 25% SC</li><li> 0.25 ग्राम थियामेथोक्साम 25% WG</li><li> 0.65 मिलीलीटर लैम्ब्डा साइहेलोथ्रिन 5% EC</li><li> 1.50 ग्राम डाइफेंथियूरॉन 50% WP</li><li> 0.50 मिलीलीटर थियामेथोक्साम 12.6% + लैम्ब्डा साइहेलोथ्रिन 9.5% ZC</li>","पत्ती के पीलेपन को कम करने के लिए, 2.5 ग्राम मेनकोजेब 75% WP और साथ ही 10 ग्राम यूरिया का प्रति 1 लीटर पानी में मिलाकर पौधों पर छिड़काव करें।"],
  "chemical_info": {
    "0":{
        "technical": "एजाडिरेक्टिन 1500 ppm (0.15% EC)",
        "normal": ["वानगार्ड 1500 (एग्रीलैंड बायोटेक)","निमोज़ सिल्वर (उत्कर्ष एग्रोकेम)"]
    },
    "1":{
        "technical": "नीम बीज अर्क",
        "normal": ["नीम बीज अर्क"]
    },
    "2":{
        "technical": "बुप्रोफेज़िन 25% SC",
        "normal": ["क्री-मार्च (कृषि रसायन)","बिपीमेईन (अदामा)","फ्लोटीस (बायर)","पी.आई.-बुप्रो (पी.आई.)","एप्लाउड़ (टाटा रैलिस)","एपल (धानुका)","निन्जा (कोरोमंडल)","ब्रावो (सल्फ़र मिल्स)"]
    },
    "3":{
        "technical": "थियामेथोक्साम 25% WG",
        "normal": ["एक्टारा (सिंजेन्टा)","अनंत (टाटा रैलिस)","मेक्सिमा (पी.आई.)","अरेवा (धानुका)","रेनोवा (यु.पी.एल.)","सकगन (अदामा)","स्पाईक (सल्फ़र मिल्स)","एक्स्ट्रा सुपर (क्रिस्टल)"]
    },
    "4":{
        "technical": "लैम्ब्डा साइहेलोथ्रिन 5% EC",
        "normal": ["कराटे (सिंजेन्टा)","एल.ओ.सी.-5 (कृषि रसायन)","रीवा-5 (टाटा रैलिस)","लेमडेक्स सुपर (अदामा)","संत्री (जी.एस.पी.)","ड्रैगन 701 (सुमिल)","मस्टंग (सल्फ़र मिल्स)"]
    },
    "5":{
        "technical": "डाइफेंथियूरॉन 50% WP",
        "normal": ["पोलो (सिंजेन्टा)","पेजर (धानुका)","क्रिजेट (कृषि रसायन)","अलेरो (सुमिल)","लोगो (इन्सेक्टीसाईंड इंडिया)","फेरोटिया (कोरोमंडल)"]
    },
    "6":{
        "technical": "थियामेथोक्साम 12.6% + लैम्ब्डा साइहेलोथ्रिन 9.5% ZC",
        "normal": ["अलीका (सिंजेन्टा)","कोरेक्टे (कृषि रसायन)"]
    },
    "7":{
        "technical": "मेनकोजेब 75% WP",
        "normal": ["डायथेन एम-45 (डाउ एग्रो)","इन्डोफिल एम-45 (इन्डोफिल)","टाटा एम-45 (टाटा रैलिस)","धानुका एम-45 (धानुका)"]
    },
    "8":{
        "technical": "यूरिया (नाइट्रोजन)",
        "normal": ["यूरिया (इफ्फको)","सरदार-यूरिया (जी.एस.एफ.सी.)","कृभको-यूरिया (कृभको)"]
      }
    },
 	"advisory_image":["cotton_tobacco_streak_virus_image1.jpg"],
    "images": {
      "stage_1": {"name":"","image":["cotton_tobacco_streak_virus_image1.jpg","cotton_tobacco_streak_virus_image2.jpg","cotton_tobacco_streak_virus_image3.jpg","cotton_tobacco_streak_virus_image4.jpg"]}
    }
}