{
  "name" :"सफ़ेद मक्खी",
  "type" :"p",
  "cause_organism": ["अलेयरोडीदी"],
  "symptoms": ["कीट, वयस्क और निम्फ दोनों अवधि में पत्तियों की ऊपरी और निचली सतह से पत्तियों के रस को चूसते हैं","पौधे की पत्तियों पर चिपचिपा द्रव्य की वजह से पत्तियां काली हो जाती हैं","पत्तियों पर पीले धब्बे होते है, जो बाद में पूरी पत्तियों पर फैल जाते हैं","पत्तियां ऊपर की ओर मुड़ जाती हैं और पौधे का विकास कम हो जाता है","गंभीर संक्रमण के कारण पत्तियां समय से पहले झड़ने लगती हैं","रुई के बॉल पूर्ण अवस्था में नहीं खुलते","यह कपास के पत्ती पर वायरस रोगों को भी पहुंचाता है"],
  "advisory": ["कीट का उद्भव अंकुरण के दौरान से फसल के पूर्ण विकसित होने तक रहता है","उच्च तापमान और अल्प वर्षा की स्थिति में कीट की गंभीरता बढ़ती है"],
  "management": ["सफ़ेद मक्खी को आकर्षित करके मारने के लिए प्रति 1 हैक्टेयर 1 लाइट ट्रैप लगाएंं।","खेत में 25 येलो स्टिकी ट्रेप (पीला चिपचिपा जाल) प्रति 1 हैक्टेयर में लगाएंं।","खेत में नाइट्रोजन की अतिरिक्त खुराक से बचें और नाइट्रोजन को 3 या 4 भाग में  विभाजन करके दें।","खेतों मे से और खेत की मेढ़ों पर से खरपतवार को नियंत्रित करें।","10 मिलिलीटर एजाडिरेक्टिन 1500 ppm (0.15% EC) या 50 मिलीलीटर नीम बीज अर्क प्रति 1 लीटर पानी में मिलाकर शुरुआती लक्षणों के शुरू से महीने में दो बार छिड़काव करेंं।","नीचे दिये गये किटनाशक में से कोई भी एक किटनाशक को प्रति 1 लीटर पानी में  मिलाकर, 10 से 15 दिन के अंतराल पर, 2 से 3 बार पौधों पर छिड़काव करें।:<br><li> 1.5 मिलीलीटर बुप्रोफेज़िन 25% SC</li><li> 0.25 ग्राम थियामेथोक्साम 25% WG</li><li> 0.65 मिलीलीटर लैम्ब्डा साइहेलोथ्रिन 5% EC</li><li> 1.50 ग्राम डाइफेंथियूरॉन 50% WP</li><li> 0.50 मिलीलीटर थियामेथोक्साम 12.6% + लैम्ब्डा साइहेलोथ्रिन 9.5% ZC</li><li> 2.0 ग्राम कारटेप हाइड्रोक्लोराइड 50% + बुप्रोफेज़िन 10% WP</li>"],
  "chemical_info": {
    "0":{
        "technical": "एजाडिरेक्टिन 1500 ppm (0.15% EC)",
        "normal": ["वानगार्ड 1500 (एग्रीलैंड बायोटेक)","निमोज़ सिल्वर (उत्कर्ष एग्रोकेम)"]
    },
    "1":{
        "technical": "नीम बीज अर्क",
        "normal": ["नीम बीज अर्क"]
    },
    "2":{
        "technical": "बुप्रोफेज़िन 25% SC",
        "normal": ["क्री-मार्च (कृषि रसायन)","बिपीमेईन (अदामा)","फ्लोटीस (बायर)","पी.आई.-बुप्रो (पी.आई.)","एप्लाउड़ (टाटा रैलिस)","एपल (धानुका)","निन्जा (कोरोमंडल)","ब्रावो (सल्फ़र मिल्स)"]
    },
    "3":{
        "technical": "थियामेथोक्साम 25% WG",
        "normal": ["एक्टारा (सिंजेन्टा)","अनंत (टाटा रैलिस)","मेक्सिमा (पी.आई.)","अरेवा (धानुका)","रेनोवा (यु.पी.एल.)","सकगन (अदामा)","स्पाईक (सल्फ़र मिल्स)","एक्स्ट्रा सुपर (क्रिस्टल)"]
    },
    "4":{
        "technical": "लैम्ब्डा साइहेलोथ्रिन 5% EC",
        "normal": ["कराटे (सिंजेन्टा)","एल.ओ.सी.-5 (कृषि रसायन)","रीवा-5 (टाटा रैलिस)","लेमडेक्स सुपर (अदामा)","संत्री (जी.एस.पी.)","ड्रैगन 701 (सुमिल)","मस्टंग (सल्फ़र मिल्स)"]
    },
    "5":{
        "technical": "डाइफेंथियूरॉन 50% WP",
        "normal": ["पोलो (सिंजेन्टा)","पेजर (धानुका)","क्रिजेट (कृषि रसायन)","अलेरो (सुमिल)","लोगो (इन्सेक्टीसाईंड इंडिया)","फेरोटिया (कोरोमंडल)"]
    },
    "6":{
        "technical": "थियामेथोक्साम 12.6% + लैम्ब्डा साइहेलोथ्रिन 9.5% ZC",
        "normal": ["अलीका (सिंजेन्टा)","कोरेक्टे (कृषि रसायन)"]
    },
    "7":{
        "technical": "कारटेप हाइड्रोक्लोराइड 50% + बुप्रोफेज़िन 10% WP",
        "normal": ["क्रीटेप गोल्ड (कृषि रसायन)"]
      }
    },
 	"advisory_image":["cotton_whitefly_image1.jpg"],
    "images": {
      "stage_1": {"name":"","image":["cotton_whitefly_image1.jpg","cotton_whitefly_image2.jpg","cotton_whitefly_image3.jpg","cotton_whitefly_image4.jpg","cotton_whitefly_image5.jpg"]}
    }
}